EDI_RDNOM_20170623
TableName	Actflag	Created	Changed	RdnomID	SecID	ISIN	EffectiveDate	OldDenomination1	OldDenomination2	OldDenomination3	OldDenomination4	OldDenomination5	OldDenomination6	OldDenomination7	OldMinimumDenomination	OldDenominationMultiple	NewDenomination1	NewDenomination2	NewDenomination3	NewDenomination4	NewDenomination5	NewDenomination6	NewDenomination7	NewMinimumDenomination	NewDenominationMultiple	Notes
RDNOM	I	2017/06/23	2017/06/23	77381	5177890	JP1746911H60	2017/06/23	50000.000000									10000000.000000									
RDNOM	I	2017/06/23	2017/06/23	77382	5119103		2017/04/20	10000000.000000									100.000000									
RDNOM	I	2017/06/23	2017/06/23	77383	5179090	US313747AY39	2017/06/24	1000.000000								1000	2000.000000							2000.000000	1000	
RDNOM	I	2017/06/23	2017/06/23	77384	5181340	XS1638075488	2017/06/22	200000.000000									1000.000000							200000.000000		
RDNOM	I	2017/06/23	2017/06/23	77385	5009246	XS1543030222	2016/12/30	1.000000							2000.000000		2000.000000							2000.000000		
RDNOM	I	2017/06/23	2017/06/23	77386	5047468	XS1567439689	2017/02/18	1000.000000							100000.000000		100000.000000							100000.000000		
RDNOM	I	2017/06/23	2017/06/23	77387	5048539	USC86155AA35	2017/02/16	1000.000000							150000.000000	1000	150000.000000							150000.000000	1000	
RDNOM	I	2017/06/23	2017/06/23	77388	5080446	XS1576837725	2017/03/23	1000.000000							100000.000000	1000	100000.000000							100000.000000	1000	
RDNOM	I	2017/06/23	2017/06/23	77389	5023769	XS1555300497	2017/01/26	1000.000000							200000.000000		200000.000000							200000.000000		
RDNOM	I	2017/06/23	2017/06/23	77390	5080421	XS1576838376	2017/03/23	1000.000000							100000.000000	1000	100000.000000							100000.000000	1000	
RDNOM	I	2017/06/23	2017/06/23	77391	5156507	KR6120111754	2017/05/31	1000.000000									10000.000000							10000.000000		
RDNOM	I	2017/06/23	2017/06/23	77392	5075475	XS1574750292	2017/03/16	1000.000000							200000.000000	1000	200000.000000							200000.000000	1000	
RDNOM	I	2017/06/23	2017/06/23	77393	5074274	US00972BAB53	2017/03/16	1000.000000							200000.000000	1000	200000.000000							200000.000000	1000	
RDNOM	I	2017/06/23	2017/06/23	77394	5024773	XS1555576641	2017/02/02	1000.000000							100000.000000	1000	100000.000000							100000.000000	1000	
RDNOM	I	2017/06/23	2017/06/23	77395	5083584	US345525AE90	2017/03/29	1000.000000							2000.000000	1000	2000.000000							2000.000000	1000	
RDNOM	I	2017/06/23	2017/06/23	77396	5121838	USU8604FAA40	2017/04/29	1000.000000							2000.000000	1000	2000.000000							2000.000000	1000	
RDNOM	I	2017/06/23	2017/06/23	77397	4739833	US40415RAR66	2016/04/12	1000.000000							1000.000000	1000	2000.000000							2000.000000	1000	
RDNOM	I	2017/06/23	2017/06/23	77398	5025715	XS1555576997	2017/02/02	1000.000000							100000.000000	1000	100000.000000							100000.000000	1000	
RDNOM	I	2017/06/23	2017/06/23	77399	5092086	US80282KAK25	2017/03/28	1000.000000							2000.000000	1000	2000.000000							2000.000000	1000	
RDNOM	I	2017/06/23	2017/06/23	77400	5181565	ZAG000144759	2017/06/22	1000000.000000									1.000000									
RDNOM	I	2017/06/23	2017/06/23	77401	5071115	XS1556170394	2017/03/12	1000.000000							1000.000000	1000	200000.000000							200000.000000	1000	
RDNOM	I	2017/06/23	2017/06/23	77402	4958488	US87952VAL09	2016/11/18	1000.000000							2000.000000	1000	2000.000000							2000.000000	1000	
RDNOM	I	2017/06/23	2017/06/23	77403	5092082	USU8029KAA08	2017/03/28	1000.000000							2000.000000	1000	2000.000000							2000.000000	1000	
RDNOM	D	2016/06/14	2017/06/23	70034	4798500	XS1432493796	2017/06/11	1000.000000							100000.000000	1000	100000.000000							200000.000000	1000	
RDNOM	I	2017/06/23	2017/06/23	77404	4952538	XS1513765922	2016/11/09	1000.000000							100000.000000		100000.000000							100000.000000		
RDNOM	I	2017/06/23	2017/06/23	77405	5038074	XS1562623584	2017/02/08	100000.000000							100000.000000	100000	100000.000000							100000.000000	1000	
RDNOM	I	2017/06/23	2017/06/23	77406	5038076	XS1562615135	2017/02/08	100000.000000							100000.000000	100000	100000.000000							100000.000000	1000	
RDNOM	I	2017/06/23	2017/06/23	77408	5173678	XS1633854903	2017/06/21	1000000.000000							20000000.000000		20000000.000000							20000000.000000		
RDNOM	I	2017/06/23	2017/06/23	77409	4798509	XS1432493879	2016/06/15	100000.000000							200000.000000	1000	100000.000000							100000.000000	1000	
RDNOM	I	2017/06/23	2017/06/23	77410	4954375	XS1516324321	2016/11/11	1000.000000							200000.000000	1000	200000.000000							200000.000000	1000	
RDNOM	I	2017/06/23	2017/06/23	77411	4798500	XS1432493796	2016/06/15	1000.000000							100000.000000	1000	100000.000000							100000.000000	1000	
RDNOM	I	2017/06/23	2017/06/23	77412	5001801	US478375AE82	2016/12/29	1000.000000									2000.000000							2000.000000		
RDNOM	I	2017/06/23	2017/06/23	77413	5178009	XS1637093920	2017/06/20	1000.000000							100000.000000	1000	100000.000000							100000.000000	1000	
RDNOM	I	2017/06/23	2017/06/23	77414	5026002	XS1526108235	2017/01/27	1000.000000							200000.000000	1000	200000.000000							200000.000000	1000	
RDNOM	I	2017/06/23	2017/06/23	77415	4983652	US71656LBP58	2016/12/14	1000.000000							10000.000000	1000	10000.000000							10000.000000	1000	
RDNOM	I	2017/06/23	2017/06/23	77416	4978031	US63253WAJ09	2016/12/08	1000.000000							250000.000000	1000	250000.000000							250000.000000	1000	
RDNOM	I	2017/06/23	2017/06/23	77417	4976951	XS1528141788	2016/12/08	1000.000000							100000.000000	1000	100000.000000							100000.000000	1000	
RDNOM	I	2017/06/23	2017/06/23	77418	4983648	US71656MBP32	2016/12/14	1000.000000							10000.000000	1000	10000.000000							10000.000000	1000	
RDNOM	I	2017/06/23	2017/06/23	77419	5179142	XS1637093508	2017/06/23	1000.000000							100000.000000	1000	100000.000000							100000.000000	1000	
RDNOM	I	2017/06/23	2017/06/23	77420	4980230	XS1531306717	2016/12/09	1000.000000							100000.000000		100000.000000							100000.000000		
EDI_ENDOFFILE
