EDI_ICC_20170623
TableName	Actflag	Created	Changed	IccID	SecID	ISIN	EffectiveDate	OldISIN	NewISIN	OldUSCode	NewUSCode	OldVALOREN	NewVALOREN	EventType	RelEventID	OldCommonCode	NewCommonCode
ICC	D	2017/06/22	2017/06/23	332060	4901353	BE6289458752	2017/06/22	BE6289458752						CLEAN			
ICC	I	2017/06/23	2017/06/23	332069	5168447	ARCREN560028	2017/06/12		ARCREN560028					CORR			
ICC	I	2017/06/23	2017/06/23	332070	5160270	PAL157732MM9	2017/06/15		PAL157732MM9					CORR			
ICC	I	2017/06/23	2017/06/23	332071	5160235	PAL157733KT6	2017/06/15		PAL157733KT6					CORR			
ICC	I	2017/06/23	2017/06/23	332072	4161732		2013/12/20	CA0665ZRMM14		0665ZRMM1				CORR			
ICC	I	2017/06/23	2017/06/23	332073	4046948		2013/09/20	CA0729Z3JM20		0729Z3JM2				CORR			
ICC	I	2017/06/23	2017/06/23	332074	4031095		2013/08/01	CA1277ZAHA38		1277ZAHA3				CORR			
ICC	I	2017/06/23	2017/06/23	332075	4065475		2013/07/31	CA2009ZJGY92		2009ZJGY9				CORR			
ICC	I	2017/06/23	2017/06/23	332076	4063228		2013/07/24	CA2249Z2GR34		2249Z2GR3				CORR			
ICC	I	2017/06/23	2017/06/23	332077	4071361		2013/08/08	CA2929Z6H826		2929Z6H82				CORR			
ICC	I	2017/06/23	2017/06/23	332078	4143391		2013/12/19	CA2929Z6ML76		2929Z6ML7				CORR			
ICC	I	2017/06/23	2017/06/23	332079	4105118		2013/09/20	CA4381ZAJM21		4381ZAJM2				CORR			
ICC	I	2017/06/23	2017/06/23	332080	4056066		2013/07/24	CA4039Z2GR60		4039Z2GR6				CORR			
ICC	I	2017/06/23	2017/06/23	332081	4018065		2013/07/12	CA6939Z8GD36		6939Z8GD3				CORR			
ICC	I	2017/06/23	2017/06/23	332082	4066315		2013/09/26	CA7659Z4JT73		7659Z4JT7				CORR			
ICC	I	2017/06/23	2017/06/23	332083	4126184		2013/11/14	CA7659Z4LF42		7659Z4LF4				CORR			
ICC	I	2017/06/23	2017/06/23	332084	1845922		2010/06/22	CA779928TP59		779928TP5				CORR			
ICC	I	2017/06/23	2017/06/23	332085	4045305		2013/08/22	CA8359Z9HP21		8359Z9HP2				CORR			
ICC	I	2017/06/23	2017/06/23	332086	2132924		2010/10/13	CA8619205Q55		8619205Q5				CORR			
ICC	I	2017/06/23	2017/06/23	332087	4080754		2013/07/24	CA8911ZMGR82		8911ZMGR8				CORR			
ICC	I	2017/06/23	2017/06/23	332088	4896408	US374422AF02	2016/09/15	US374422AF02	US374422AF02	374422AF0	374422AF0			CORR			149073540
ICC	I	2017/06/23	2017/06/23	332089	5151604	MXBIGO000LQ7	2017/06/22		MXBIGO000LQ7					CORR			
ICC	I	2017/06/23	2017/06/23	332091	4864111	USV3854PAA94	2016/08/16	USV3854PAA94	USV3854PAA94	V3854PAA9	V3854PAA9			CORR			141753967
ICC	I	2017/06/23	2017/06/23	332092	4864107	US39530XAA28	2016/08/16	US39530XAA28	US39530XAA28	39530XAA2	39530XAA2			CORR			147175124
ICC	I	2017/06/23	2017/06/23	332101	5177721	US65412AEK43	2017/06/20	US65412AEK43	US65412AEK43	65412AEK4	65412AEK4			CORR			163732688
ICC	I	2017/06/23	2017/06/23	332102	4302583	CA13508Z3M24	2014/07/02		CA13508Z3M24		13508Z3M2			CORR			
ICC	I	2017/06/23	2017/06/23	332104	5132054		2017/06/23	XS0976893932						CLEAN		097689393	
ICC	I	2017/06/23	2017/06/23	332105	4075933		2013/08/15	CA6410Z9HG58		6410Z9HG5				CORR			
ICC	I	2017/06/23	2017/06/23	332106	1700713		2009/12/21	CA7657ZRMN91		7657ZRMN9				CORR			
ICC	I	2017/06/23	2017/06/23	332107	4533900	COB07CB00553	2014/07/23	COJ49CB00426	COB07CB00553					CORR			
ICC	I	2017/06/23	2017/06/23	332108	4527600	COB07CB00397	2009/03/04	COB07CB00132	COB07CB00397					CORR			
ICC	I	2017/06/23	2017/06/23	332109	4532077	COB07CB00546	2012/04/18	COJ49CB00376	COB07CB00546					CORR			
ICC	I	2017/06/23	2017/06/23	332110	5167418		2017/06/23	XS1630045778						CLEAN		163004577	
ICC	I	2017/06/23	2017/06/23	332111	5180010	US87157DAC39	2017/06/21		US87157DAC39		87157DAC3			CORR			
ICC	I	2017/06/23	2017/06/23	332118	5174391	FR0013258464	2017/06/14	FR0013258464	FR0013258464					CORR			162001400
ICC	I	2017/06/23	2017/06/23	332119	5171582	FR0013260759	2017/06/14	FR0013260759	FR0013260759					CORR			162792903
ICC	I	2017/06/23	2017/06/23	332127	5181955	ZAG000144767	2017/06/22		ZAG000144767					CORR			
ICC	I	2017/06/23	2017/06/23	332128	5180624	AT0000A1WK61	2017/06/21	AT0000A1WK61	AT0000A1WK61					CORR			163452251
ICC	I	2017/06/23	2017/06/23	332129	5180843		2017/06/23	US595112BH53		595112BH5				CLEAN			
ICC	I	2017/06/23	2017/06/23	332130	5180606	FR0013262672	2017/06/21	FR0013262672	FR0013262672					CORR			163394081
ICC	I	2017/06/23	2017/06/23	332131	5162266		2017/06/23	XS1627595314						CLEAN		162759531	
ICC	I	2017/06/23	2017/06/23	332132	5170568		2017/06/23	XS1632717374						CLEAN		163271737	
ICC	I	2017/06/23	2017/06/23	332133	5159313	BE6295659682	2017/06/21	BE6295659682	BE6295659682					CORR			162421174
ICC	I	2017/06/23	2017/06/23	332135	5169161		2017/06/23	INE804I074W1						CLEAN			
ICC	I	2017/06/23	2017/06/23	332136	4983652	US71656LBP58	2016/12/13	US71656LBP58	US71656LBP58	71656LBP5	71656LBP5			CORR			153505918
ICC	I	2017/06/23	2017/06/23	332137	4978031	US63253WAJ09	2016/12/07	US63253WAJ09	US63253WAJ09	63253WAJ0	63253WAJ0			CORR			153166358
ICC	I	2017/06/23	2017/06/23	332138	4983648	US71656MBP32	2016/12/13	US71656MBP32	US71656MBP32	71656MBP3	71656MBP3			CORR			153497559
ICC	I	2017/06/23	2017/06/23	332139	5160527	XS1573910111	2017/06/05	XS1573910111	XS1573910111				35913264	CORR		157391011	157391011
ICC	I	2017/06/23	2017/06/23	332140	5018188	US75102XAA46	2017/01/20	US75102XAA46	US75102XAA46	75102XAA4	75102XAA4			CORR			155427329
ICC	I	2017/06/23	2017/06/23	332141	5018191	USL7909CAA55	2017/01/20	USL7909CAA55	USL7909CAA55	L7909CAA5	L7909CAA5			CORR			155427523
EDI_ENDOFFILE
